AWSTATS DATA FILE 7.0 (build 1.971)
# If you remove this file, all statistics for date 201508 will be lost/reset.
# Last config file used to build this data file was /etc/awstats/awstats.mskmotors.ru.conf.

# Position (offset in bytes) in this file for beginning of each section for
# direct I/O access. If you made changes somewhere in this file, you should
# also remove completely the MAP section (AWStats will rewrite it at next
# update).
BEGIN_MAP 27
POS_GENERAL 1992                
POS_TIME 2664                
POS_VISITOR 19980               
POS_DAY 24861               
POS_DOMAIN 3549                
POS_LOGIN 3783                
POS_ROBOT 3938                
POS_WORMS 4535                
POS_EMAILSENDER 4666                
POS_EMAILRECEIVER 4809                
POS_SESSION 25433               
POS_SIDER 25641               
POS_FILETYPES 4944                
POS_DOWNLOADS 5149                
POS_OS 5220                
POS_BROWSER 5356                
POS_SCREENSIZE 6221                
POS_UNKNOWNREFERER 6295                
POS_UNKNOWNREFERERBROWSER 6382                
POS_ORIGIN 6464                
POS_SEREFERRALS 6608                
POS_PAGEREFS 6776                
POS_SEARCHWORDS 8004                
POS_KEYWORDS 8156                
POS_MISC 2327                
POS_ERRORS 8215                
POS_CLUSTER 3639                
POS_SIDER_404 8366                
END_MAP

# LastLine    = Date of last record processed - Last record line number in last log - Last record offset in last log - Last record signature value
# FirstTime   = Date of first visit for history file
# LastTime    = Date of last visit for history file
# LastUpdate  = Date of last update - Nb of parsed records - Nb of parsed old records - Nb of parsed new records - Nb of parsed corrupted - Nb of parsed dropped
# TotalVisits = Number of visits
# TotalUnique = Number of unique visitors
# MonthHostsKnown   = Number of hosts known
# MonthHostsUnKnown = Number of hosts unknown
BEGIN_GENERAL 8
LastLine 20150901003643 1 0 9407110562796
FirstTime 20150813124202
LastTime 20150831221214
LastUpdate 20150901010136 1 0 0 0 0
TotalVisits 180                 
TotalUnique 115                 
MonthHostsKnown 0                   
MonthHostsUnknown 121                 
END_GENERAL

# Misc ID - Pages - Hits - Bandwidth
BEGIN_MISC 10
QuickTimeSupport 0 0 0
JavaEnabled 0 0 0
JavascriptDisabled 0 0 0
PDFSupport 0 0 0
WindowsMediaPlayerSupport 0 0 0
AddToFavourites 0 30 0
RealPlayerSupport 0 0 0
TotalMisc 0 0 0
DirectorSupport 0 0 0
FlashSupport 0 0 0
END_MISC

# Hour - Pages - Hits - Bandwidth - Not viewed Pages - Not viewed Hits - Not viewed Bandwidth
BEGIN_TIME 24
0 83 119 1093616 38 98 463697
1 81 113 1775026 19 52 218649
2 80 86 80382 18 60 269601
3 79 127 1729035 24 79 345489
4 131 580 9337880 17 78 311919
5 86 106 803234 21 54 282636
6 78 92 181814 15 47 203733
7 77 109 1576292 76 128 651808
8 84 145 3039901 25 98 516329
9 84 136 333740 28 120 470550
10 77 80 421254 32 47 257597
11 77 154 2137248 22 120 488841
12 103 491 23412392 31 454 2031438
13 204 368 4069556 24 167 685480
14 135 994 5396587 24 844 6147220
15 154 745 19059277 67 597 4602122
16 109 344 5038488 27 367 1716831
17 110 280 3538080 20 147 725056
18 100 143 1956500 52 183 770597
19 86 161 3281480 30 203 811589
20 103 192 3964048 51 156 642709
21 119 612 25783054 34 508 1907859
22 88 202 2950173 44 183 796646
23 89 145 5940927 23 111 497818
END_TIME

# Domain - Pages - Hits - Bandwidth
# The 10 first Pages must be first (order not required for others)
BEGIN_DOMAIN 1
ip 2417 6524 126899984
END_DOMAIN

# Cluster ID - Pages - Hits - Bandwidth
BEGIN_CLUSTER 0
END_CLUSTER

# Login - Pages - Hits - Bandwidth - Last visit
# The 10 first Pages must be first (order not required for others)
BEGIN_LOGIN 0
END_LOGIN

# Robot ID - Hits - Bandwidth - Last visit - Hits on robots.txt
# The 10 first Hits must be first (order not required for others)
BEGIN_ROBOT 13
googlebot 275 1409253 20150831202608 30
bot[\s_+:,\.\;\/\\-] 143 720456 20150831152039 38
mj12bot 37 313159 20150829003055 12
robot 17 82846 20150831224433 2
no_user_agent 15 554667 20150831055025 0
yandex 12 45277 20150831212338 6
crawl 6 82644 20150828201104 3
spider 3 14678 20150828194606 1
surveybot 2 7605 20150824155839 1
mail\.ru 2 7547 20150826234149 1
python 1 37263 20150824225913 0
archive\.org_bot 1 510 20150827093016 1
nutch 2 7568 20150822211010 1
END_ROBOT

# Worm ID - Hits - Bandwidth - Last visit
# The 5 first Hits must be first (order not required for others)
BEGIN_WORMS 0
END_WORMS

# EMail - Hits - Bandwidth - Last visit
# The 20 first Hits must be first (order not required for others)
BEGIN_EMAILSENDER 0
END_EMAILSENDER

# EMail - Hits - Bandwidth - Last visit
# The 20 first hits must be first (order not required for others)
BEGIN_EMAILRECEIVER 0
END_EMAILRECEIVER

# Files type - Hits - Bandwidth - Bandwidth without compression - Bandwidth after compression
BEGIN_FILETYPES 7
css 402 2761319 0 0
php 2070 2190375 0 0
png 594 40104371 0 0
html 347 4627063 0 0
js 431 1674680 0 0
jpg 2617 75500315 0 0
gif 63 41861 0 0
END_FILETYPES

# Downloads - Hits - Bandwidth
BEGIN_DOWNLOADS 1
/robots.txt 96 0 48960
END_DOWNLOADS

# OS ID - Hits
BEGIN_OS 9
macosx 655
winlong 5
winxp 483
win2003 10
winnt 1
linuxubuntu 15
linux 20
winvista 191
win7 5144
END_OS

# Browser ID - Hits
BEGIN_BROWSER 47
firefox28.0 4
chrome37.0.2062.124 1
msie6.0 477
chrome44.0.2403.125 1
chrome40.0.2214.115 1
firefox3.6 3
chrome43.0.2357.124 3787
firefox26.0 1
chrome28.0.1500.95 14
firefox4.0 2
firefox18.0 1
chrome31.0.1650.57 51
opera9.80 97
firefox31.0 5
msie8.0 6
iphone 1
chrome43.0.2357.81 15
chrome34.0.1847.132 15
chrome24.0.1312.57 1
chrome41.0.2272.101 12
msie7.0 9
chrome37.0.2062.120 4
firefox23.0 1
firefox16.0 1
chrome41.0.2272.89 1
safari8.0 648
msie9.0 1
chrome42.0.2311.152 17
firefox17.0 8
chrome17.0.963.56 1
chrome34.0.1847.131 2
firefox21.0 2
firefox29.0 2
chrome44.0.2403.155 334
chrome32.0.1700.107 68
chrome44.0.2403.107 63
chrome36.0.1985.143 508
mozilla 17
chrome44.0.2403.157 279
chrome35.0.1916.153 34
firefox37.0 6
chrome42.0.2311.135 1
msie10.0 8
firefox3.6.3 1
firefox36.0 10
firefox35.0 1
safari 2
END_BROWSER

# Screen size - Hits
BEGIN_SCREENSIZE 0
END_SCREENSIZE

# Unknown referer OS - Last visit date
BEGIN_UNKNOWNREFERER 0
END_UNKNOWNREFERER

# Unknown referer Browser - Last visit date
BEGIN_UNKNOWNREFERERBROWSER 0
END_UNKNOWNREFERERBROWSER

# Origin - Pages - Hits 
BEGIN_ORIGIN 6
From0 146 622
From1 0 0
From2 13 13
From3 89 89
From4 2169 5800
From5 0 0
END_ORIGIN

# Search engine referers ID - Pages - Hits
BEGIN_SEREFERRALS 2
google 3 3
yandex 10 10
END_SEREFERRALS

# External page referers - Pages - Hits
# The 10 first Pages must be first (order not required for others)
BEGIN_PAGEREFS 19
http://success-seo.com/try.php 35 35
http://buttons-for-website.com 8 8
http://yandex.by/clck/jsredir 5 5
http://carmods.ru/page/117/ 5 5
http://carmods.ru/2010/08/17/anderson-germany-ferrari-california/ 5 5
http://carmods.ru/2015/08/13/%D0%BD%D0%B5%D0%B4%D0%BE%D1%80%D0%BE%D0%B3%D0%B0%D1%8F-%D0%BC%D0%B5%D0%B1%D0%B5%D0%BB%D1%8C-%D0%B4%D0%BB%D1%8F-%D1%81%D0%BF%D0%B0%D0%BB%D0%B5%D0%BD-%D0%B8-%D0%BF%D1%80%D0%B8%D1%85%D0%BE%D0%B6%D0%B8/ 5 5
http://carmods.ru/2009/01/16/nissan-gt-r-specv-%D0%BE%D1%84%D0%B8%D1%86%D0%B8%D0%B0%D0%BB%D1%8C%D0%BD%D0%BE/ 5 5
http://cadov.com/locals/cable-vision-phoenix 4 4
http://hleb-pechka.hostenko.com/%D1%85%D0%BB%D0%B5%D0%B1%D0%BE%D0%BF%D0%B5%D1%87%D0%BA%D0%B0-%D0%BF%D1%80%D0%BE%D0%BC%D1%8B%D1%88%D0%BB%D0%B5%D0%BD%D0%BD%D0%B0%D1%8F-%D1%86%D0%B5%D0%BD%D0%B0/ 4 4
http://video--production.com 3 3
http://pizza-imperia.com 1 1
http://hvd-store.com 1 1
http://www.yandex.by/clck/jsredir 1 1
http://hundejo.com 1 1
http://eito.pw 2 2
http://burger-imperia.com 1 1
http://russia.subaruda.irr.ru 1 1
http://romansmirnov.org 1 1
http://allbest.ru 1 1
END_PAGEREFS

# Search keyphrases - Number of search
# The 10 first number of search must be first (order not required for others)
BEGIN_SEARCHWORDS 0
END_SEARCHWORDS

# Search keywords - Number of search
# The 10 first number of search must be first (order not required for others)
BEGIN_KEYWORDS 0
END_KEYWORDS

# Errors - Hits - Bandwidth
BEGIN_ERRORS 6
403 193 689298
302 2 0
206 3 393653
500 3 8571
301 6 1938
404 4148 21364467
END_ERRORS

# URL with 404 errors - Hits - Last URL referer
BEGIN_SIDER_404 239
/css/camera.css 133 http://www.mskmotors.ru/
/ 1 -
/catalog/nissan/tiida-sedan/4 1 -
/contacts/js/script.js 7 http://mskmotors.ru/contacts/
/catalog/ford/fusion/2 1 -
/components/com_contushdvideoshare/js/commentappend.js 1 -
/admin.php 15 -
/booking/js/booking.js 137 http://www.mskmotors.ru/
/catalog/nissan/tiida-sedan/12 1 -
/catalog/ford/focus3-sedan 1 -
/catalog/toyota/corolla/1 1 -
/forum/install/upgrade.php 1 -
/service/js/wow.js 3 http://mskmotors.ru/service/
/catalog/suzuki/grand-vitara-5d/6 1 -
/contacts/css/camera.css 7 http://mskmotors.ru/contacts/
/tradein 1 -
/catalog/chevrolet/aveo3d/1 1 -
/catalog/mazda/3-sedan/3 1 -
/templates/hot_boutique/js/jquery.lightbox-0.5.min.js 1 -
/catalog/nissan/x-trail/6 1 -
/catalog/chevrolet/lacetti-sedan/3 1 -
/catalog/mazda/6-sedan/9 1 -
/bitrix/templates/mskmotors/components/bitrix/search.form/images/gradient1.png 219 http://www.mskmotors.ru/bitrix/cache/css/s1/mskmotors/template_0073d61b97f613649c834ccdf2523701/template_0073d61b97f613649c834ccdf2523701.css
/contacts/booking/js/booking.js 7 http://mskmotors.ru/contacts/
/editor/assetmanager/assetmanager.php 1 http://mskmotors.ru/editor/assetmanager/assetmanager.php
/catalog/chevrolet/lacetti-sedan/1 1 -
/catalog/vaz/lada-kalina-sedan/4 1 -
/templates/yoo_cloud/install4pv.php 1 -
/strahovanie/booking/js/jquery.placeholder.js 3 http://www.mskmotors.ru/strahovanie/
/bitrix/images/maxposter/no-image-tn.png 2 http://www.mskmotors.ru/
/catalog/toyota/camry/6 1 -
/catalog/hyundai-i30 1 -
/uslugi 1 -
/tekhtsentr 1 -
/catalog/ford/focus3-universal/12 1 -
/bitrix/images/maxposter/no_photo.gif 6 http://www.mskmotors.ru/avtomobili-s-probegom/vehicle.php
/avtomobili-s-probegom/booking/js/jquery.placeholder.js 133 http://www.mskmotors.ru/avtomobili-s-probegom/
/catalog/kia/sportage/6 1 -
/modules/mod_hot_image_slider/js/scripts.js 1 -
/catalog/nissan/tiida-hatchback/13 1 -
/service/js/jquery.mobile.customized.min.js 3 http://mskmotors.ru/service/
/catalog/nissan/x-trail/8 1 -
/vehicle.php 2 http://www.mskmotors.ru/
/catalog/mazda/3-hatchback/18 2 -
/avtomobili-s-probegom/vehicle.php 40 http://mskmotors.ru/avtomobili-s-probegom/vehicle.php
/catalog/chevrolet/aveo5d/10 1 -
/components/com_config/model/form/templates.xml 1 -
/catalog/renault/logan/4 1 -
/administrator/ 7 -
/js/script.js 140 http://www.mskmotors.ru/
/wp-content/languages/themes/sys.php 1 -
/catalog/mitsubishi/lancer-x-sedan/6 1 -
/contacts/js/wow.js 7 http://mskmotors.ru/contacts/
/phpMyAdmin/scripts/setup.php 1 -
/modules/mod_araticlhess/mod_araticlhess.php 1 -
/catalog/mitsubishi/lancer-x-sedan/4 1 -
/wp-login.php 14 -
/catalog/suzuki/sx4/4 1 -
/templates/hot_boutique/css/layout.css 1 -
/catalog/ford/fusion/5 1 -
/node/1903 1 -
/strahovanie/js/search.js 3 http://www.mskmotors.ru/strahovanie/
/promo/styles/sys.php 1 -
/kreditovanie/js/script.js 3 http://www.mskmotors.ru/kreditovanie/
/language/en-GB/en-GB.ini 1 -
/catalog/skoda/octavia 1 -
/catalog/chevrolet/aveo3d-8 1 -
/catalog/nissan/tiida-hatchback/2 1 -
/libraries/joomla/installer/guestbookrWDU.php 1 -
/catalog/honda/civic4d/4 2 -
/language/en-GB/en-GB.xml 1 -
/media/plg_quickicon_extensionupdate/js/extensionupdatecheck.js 1 -
/catalog/nissan/note/11 1 -
/index.html 1 -
/catalog/chevrolet/aveo3d-1 1 -
/catalog/ford/focus3-sedan/10 1 -
/configuration.php 2 -
/node/1929 1 -
/backup.sql 1 http://mskmotors.ru/backup.sql
/catalog/nissan/x-trail/21 1 -
/avtomobili-s-probegom/css/camera.css 116 http://www.mskmotors.ru/avtomobili-s-probegom/
/components/com_community/jomsocial_rule.xml 1 -
/catalog/mazda/cx-7/3 1 -
/service/js/script.js 2 http://www.mskmotors.ru/service/
/catalog/skoda/octavia/11 1 -
/reestr/reestr-id128032.php 10 -
/catalog/mazda/3-hatchback/14 1 -
/images/page1_img1.png 62 http://www.mskmotors.ru/
/modules/mod_articless/mod_articless.php 2 -
/catalog/vaz/2105-07 2 -
/catalog/honda/cr-v/5 1 -
/images/gradient4.png 22 http://www.mskmotors.ru/bitrix/cache/css/s1/mskmotors/template_ff6eeb45a9f1df8abbdd6b7210a096bf/template_ff6eeb45a9f1df8abbdd6b7210a096bf.css
/modules/mod_wrapper/configdj5.php 1 -
/catalog/ford/focus3-universal/14 2 -
/strahovanie/css/camera.css 4 http://www.mskmotors.ru/strahovanie/
/administrator/index.php 7 -
/catalog/honda 1 -
/catalog/chevrolet/aveo5d/1 1 -
/contacts/js/jquery.mobile.customized.min.js 7 http://mskmotors.ru/contacts/
/js/jquery.mobile.customized.min.js 137 http://www.mskmotors.ru/
/templates/hot_boutique/css/template_css.css 1 -
/catalog/vaz/2105-07/1 1 -
/modules/mod_hot_image_slider/js/jquery-1.3.2.min.js 1 -
/avtomobili-s-probegom/booking/js/booking.js 134 http://www.mskmotors.ru/avtomobili-s-probegom/
/catalog/chevrolet/cruze/7 1 -
/catalog/hyundai-elantra 1 -
/kreditovanie/css/camera.css 3 http://mskmotors.ru/kreditovanie/
/images/gradient1.png 27 http://www.mskmotors.ru/bitrix/cache/css/s1/mskmotors/template_ff6eeb45a9f1df8abbdd6b7210a096bf/template_ff6eeb45a9f1df8abbdd6b7210a096bf.css
/media/system/js/mootools.js 2 -
/catalog/nissan/tiida-sedan/5 1 -
/catalog/nissan/almera-classic/4 1 -
/catalog/nissan/ 1 -
/images/box-shadow2-left.png 212 http://www.mskmotors.ru/bitrix/cache/css/s1/mskmotors/template_0073d61b97f613649c834ccdf2523701/template_0073d61b97f613649c834ccdf2523701.css
/components/com_maxposter/assets/css/style.css 1 -
/catalog/skoda/octavia/3 1 -
/plugins/search/tags/tags.xml 1 -
/upload/maxposter/267/360662/small/98f2261fb2a533f566da2d92201c6da0.jpg 2 http://www.mskmotors.ru/avtomobili-s-probegom/vehicle.php
/node/1912 1 -
/service/css/camera.css 3 http://mskmotors.ru/service/
/catalog/nissan/qashqai/3 2 -
/catalog/vaz/lada-kalina-hatchback/1 1 -
/strahovanie/js/script.js 3 http://www.mskmotors.ru/strahovanie/
/catalog/kia/sportage/9 1 -
/components/com_tags/views/tag/metadata.xml 1 -
/catalog/opel/astra-new 1 -
/yandex.php 1 -
/catalog/honda/accord/1 1 -
/modules/mod_araticlws/mod_araticlws.php 1 -
/catalog/chance/sedan/5 1 -
/catalog/chance/hatchback/4 1 -
/catalog/ford/focus3-universal/16 1 -
/wp-content/plugins/error.php 1 -
/catalog/ford/focus3-universal/1 1 -
/avtomobili-s-probegom/js/script.js 144 http://www.mskmotors.ru/avtomobili-s-probegom/
/avtomobili-s-probegom/js/jquery.mobile.customized.min.js 148 http://www.mskmotors.ru/avtomobili-s-probegom/
/kreditovanie/js/wow.js 3 -
/kreditovanie/js/jquery.mobile.customized.min.js 3 http://mskmotors.ru/kreditovanie/
/js/jquery.tabs.js 264 http://www.mskmotors.ru/
/booking/js/jquery.placeholder.js 131 http://www.mskmotors.ru/
/media/system/js/mootools-more.js 2 -
/avtomobili-s-probegom/js/search.js 123 http://www.mskmotors.ru/avtomobili-s-probegom/
/catalog/mazda/2/11 1 -
/catalog/renault/logan/1 1 -
/catalog/kia/sportage/1 1 -
/catalog/ford/focus3-hatchback-3dr/6 1 -
/catalog/honda/cr-v/2 1 -
/m/ 4 -
/catalog/nissan/tiida-sedan/13 1 -
/catalog/mazda/2/17 1 -
/catalog/chevrolet/lacetti-sedan 1 -
/wp-content/flagallery/people/sys.php 1 -
/catalog/nissan/tiida-hatchback/10 1 -
/cache/page/a36aa3caa74083f200bb034fbbd89032-cache-page-57a70f6a483642f84f0c19a319e758e3.php 1 -
/images/page3_img1.png 6 http://www.mskmotors.ru/bitrix/cache/css/s1/mskmotors/template_dd9cddbd9c5c995ede4445fe5f30eac1/template_dd9cddbd9c5c995ede4445fe5f30eac1.css
/catalog/nissan/note 1 -
/administrator/components/com_simplephotogallery/simplephotogallery.xml 1 -
/catalog/nissan/note/4 1 -
/catalog/nissan/note/10 1 -
/mobile/ 1 -
/avtomobili-s-probegom/ 2 http://mskmotors.ru/avtomobili-s-probegom/
/loka.php 1 -
/apple-touch-icon-120x120.png 1 -
/includes/hnmain.inc.php 1 -
/sftp-settings.json 1 -
/avtomobili-s-probegom/js/wow.js 144 http://www.mskmotors.ru/avtomobili-s-probegom/
/apple-touch-icon-120x120-precomposed.png 1 -
/modules/mod_enrola/mod_enrola.php 1 -
/catalog/honda/civic4d 1 -
/catalog/kia/sportage/5 1 -
/avtomobili-s-probegom/images/page1_img1.png 25 http://www.mskmotors.ru/avtomobili-s-probegom/
/catalog/suzuki/sx4-sedan/4 1 -
/service/booking/js/booking.js 3 http://mskmotors.ru/service/
/catalog/nissan/qashqai/7 2 -
/kreditovanie/booking/js/jquery.placeholder.js 3 http://www.mskmotors.ru/kreditovanie/
/strahovanie/js/jquery.mobile.customized.min.js 3 http://www.mskmotors.ru/strahovanie/
/catalog/mazda/3-sedan/6 1 -
/js/jquery.equalheights.js 261 http://www.mskmotors.ru/
/templates/hot_boutique/js/jquery-1.3.2.min.js 1 -
/apple-touch-icon.png 4 -
/components/com_maxposter/assets/js/mt11_linked_models.js 1 -
/PHPMailer_5.2.1/docs/sys.php 1 -
/contacts/js/search.js 7 http://www.mskmotors.ru/contacts/
/templates/system/css/system.css 1 -
/catalog/ford/focus3-hatchback-5dr/2 1 -
/catalog/mitsubishi/lancer-x-sedan/5 1 -
/catalog/honda/civic5d/2 1 -
/catalog/nissan/almera-classic/6 1 -
/catalog/mazda/3-sedan/9 1 -
/catalog/chance/sedan 1 -
/images/box-shadow1.png 222 http://www.mskmotors.ru/bitrix/cache/css/s1/mskmotors/template_0073d61b97f613649c834ccdf2523701/template_0073d61b97f613649c834ccdf2523701.css
/catalog/mazda/2/13 1 -
/catalog/ford/focus3-sedan/9 1 -
/modules/mod_hot_image_slider/tmpl/style.css 1 -
/%3CIMG%20SRC=%22javascript:alert(cross_site_scripting.nasl) 1 -
/catalog/nissan/almera-classic/3 1 -
/images/box-shadow2-right.png 212 http://www.mskmotors.ru/bitrix/cache/css/s1/mskmotors/template_0073d61b97f613649c834ccdf2523701/template_0073d61b97f613649c834ccdf2523701.css
/install/upgrade.php 1 -
/images/gradient2.png 23 http://www.mskmotors.ru/bitrix/cache/css/s1/mskmotors/template_ff6eeb45a9f1df8abbdd6b7210a096bf/template_ff6eeb45a9f1df8abbdd6b7210a096bf.css
/catalog/nissan/qashqai/1 1 -
/wp-content/themes/elegance/lib/scripts/dl-skin.php 1 -
/install/index.php 1 -
/components/com_weblinks/router.php 2 -
/images/gradient3.png 24 http://www.mskmotors.ru/bitrix/cache/css/s1/mskmotors/template_ff6eeb45a9f1df8abbdd6b7210a096bf/template_ff6eeb45a9f1df8abbdd6b7210a096bf.css
/catalog/chevrolet/cruze/8 2 -
/catalog/chevrolet/lacetti-hatchback/5 1 -
/media/editors/tinymce/jscripts/tiny_mce/themes/simple/skins/o2k7/img/config.php 1 -
/catalog/vaz/lada-priora-universal 1 -
/catalog/chevrolet/aveo5d-5 1 -
/strahovanie/js/wow.js 3 http://www.mskmotors.ru/strahovanie/
/catalog/nissan/tiida-hatchback/7 1 -
/apple-touch-icon-precomposed.png 2 -
/contacts/booking/js/jquery.placeholder.js 7 http://mskmotors.ru/contacts/
/catalog/ford/focus3-universal/7 1 -
/catalog/chevrolet/aveo5d/5 1 -
/catalog/vaz/lada-kalina-sport/2 1 -
/js/search.js 138 http://www.mskmotors.ru/
/service/booking/js/jquery.placeholder.js 3 http://mskmotors.ru/service/
/modules/mod_securnet/mod_securnet.php 1 -
/templates/hot_boutique/js/reflection.js 1 -
/phocamapskml/fce0.php 1 -
/catalog/honda/accord/3 1 -
/catalog/kia/ceed 1 -
/js/wow.js 139 http://www.mskmotors.ru/
/js/camera.js 262 http://www.mskmotors.ru/
/catalog/mazda/3-hatchback/7 1 -
/admin 1 http://mskmotors.ru/admin
/catalog/mazda/3-hatchback/10 1 -
/catalog/ford/focus3-universal/10 1 -
/kreditovanie/booking/js/booking.js 3 http://www.mskmotors.ru/kreditovanie/
/service/js/search.js 2 http://www.mskmotors.ru/service/
/templates/hot_boutique/js/fontResize.js 1 -
/catalog/renault/logan/6 1 -
/kreditovanie/js/search.js 3 -
/catalog/nissan/qashqai/4 2 -
/catalog/skoda/octavia/23 1 -
/catalog/mazda/6-sedan/8 1 -
/templates/hot_boutique/css/jquery.lightbox-0.5.css 1 -
/catalog/nissan/qashqai/21 1 -
/strahovanie/booking/js/booking.js 3 http://www.mskmotors.ru/strahovanie/
END_SIDER_404

# Host - Pages - Hits - Bandwidth - Last visit date - [Start date of last visit] - [Last page of last visit]
# [Start date of last visit] and [Last page of last visit] are saved only if session is not finished
# The 10 first Hits must be first (order not required for others)
BEGIN_VISITOR 121
94.141.168.14 2081 3926 43126788 20150831185120
91.109.19.34 49 459 7980731 20150824041726
87.252.227.73 16 208 17413687 20150821215456
178.21.11.42 15 15 105399 20150831175503
109.234.156.66 15 15 105662 20150831001745
93.171.205.23 14 14 80465 20150823141455
86.57.171.77 12 111 535249 20150831162120
46.246.81.99 10 10 372240 20150824105534
46.246.86.137 10 10 372365 20150825163940
213.87.139.191 10 144 2928728 20150828193934
138.0.102.61 1 1 7037 20150827014619
46.246.9.54 8 8 295368 20150820154520
95.28.37.122 1 1 7056 20150818023913
197.155.226.209 1 3 24116 20150831093512
82.146.49.145 2 2 73677 20150831143540
187.183.216.34 2 18 858907 20150824011616
37.110.33.86 1 17 850049 20150818111250
188.75.207.134 6 97 1955096 20150819164710
179.52.84.51 1 17 888240 20150819075509
91.109.247.173 1 1 6859 20150830185338
45.55.134.12 1 2 7498 20150814045411
2.82.143.30 1 17 712579 20150819203258
41.212.109.61 1 17 850049 20150817192320
190.191.235.89 1 17 848596 20150827210031
2.25.238.170 1 17 885987 20150828163612
54.211.133.227 1 1 37263 20150824211849
217.69.133.169 1 1 7048 20150821234322
5.135.176.26 1 1 37126 20150823174127
212.183.58.43 1 3 24116 20150831095649
184.170.22.92 1 7 52439 20150825045525
185.92.73.98 1 1 7043 20150814205409
217.164.215.243 1 17 852188 20150822210140
177.6.255.195 1 3 24274 20150817205549
94.45.81.87 1 1 7107 20150824051851
177.68.207.150 1 17 850049 20150818044953
201.54.237.50 1 13 836627 20150831142231
37.212.13.137 1 30 1044803 20150829122511
62.212.73.49 1 1 7103 20150828001538
109.188.125.10 3 30 708128 20150817165324
95.220.86.70 1 3 24290 20150829024345
113.240.250.155 3 3 21303 20150828114143
179.210.87.83 1 17 848596 20150827190042
46.229.170.197 2 2 73605 20150830055629
177.200.85.242 1 1 7097 20150827212931
176.60.176.105 4 50 1192684 20150827214406
177.0.149.49 1 3 24274 20150818021031
105.226.50.189 1 17 222931 20150826082846
37.17.18.1 6 105 2150222 20150827214330
177.19.83.251 1 17 849927 20150821003232
37.17.5.244 1 29 1034523 20150826121426
89.203.186.146 1 1 6862 20150830201021
107.167.110.12 2 2 74097 20150823155726
95.221.208.125 1 14 851124 20150830082400
191.253.143.107 0 3 145867 
89.169.24.170 2 2 74496 20150828102450
177.92.15.94 1 17 701353 20150818133411
141.237.91.7 1 17 526297 20150817200847
181.113.50.176 1 16 874817 20150827035202
89.105.194.88 1 1 6898 20150831070920
46.188.91.177 1 3 169611 20150818180524
37.17.4.212 2 37 1786028 20150827171242
179.126.104.163 1 17 280674 20150831215000
108.61.99.31 1 1 7017 20150831205130
46.119.77.86 1 1 7091 20150828155349
93.159.230.28 1 3 24116 20150826020451
132.255.212.19 1 3 24257 20150817182620
213.87.133.24 0 3 145867 
187.55.18.192 2 18 287812 20150822050553
62.210.136.117 2 2 7105 20150825095604
2.94.96.167 1 14 160288 20150825152343
45.55.238.190 1 2 7559 20150827221807
115.133.88.115 1 3 24248 20150823054557
94.181.180.194 8 8 296384 20150828172825
131.72.202.22 1 11 129042 20150819003501
37.17.17.242 1 19 779165 20150830181520
178.126.230.137 2 22 755330 20150830205105
178.126.179.127 9 83 6262801 20150830232127
179.217.217.117 1 17 887566 20150831214824
201.27.210.231 1 17 644892 20150823034612
177.179.163.187 1 15 145834 20150821063358
104.236.93.213 1 2 7504 20150822130136
187.4.90.73 1 17 258219 20150821140852
187.75.144.95 1 1 7037 20150827052539
178.62.171.14 3 3 11723 20150821202004
187.53.12.99 1 10 118472 20150831160735
37.130.227.133 1 1 7103 20150828034036
37.144.186.10 1 17 849022 20150819174352
189.102.156.36 1 17 850184 20150825012811
104.236.245.144 1 2 7499 20150819175657
179.36.137.148 1 17 851800 20150824080440
187.14.245.122 1 17 286487 20150828163706
189.75.214.224 1 14 249616 20150830040605
101.102.241.42 1 17 561489 20150818153422
62.149.1.75 1 1 7041 20150826134437
104.236.120.134 0 2 102602 
37.17.7.17 6 82 1849830 20150831212227
189.68.158.241 0 3 145867 
176.14.52.170 1 17 849901 20150821205014
79.30.231.136 1 17 888358 20150827110801
199.30.25.234 0 16 841499 
181.160.11.127 1 17 255498 20150831212231
93.100.131.49 1 1 36906 20150827043548
81.177.49.236 1 1 37100 20150828165833
186.221.1.136 1 11 92914 20150820002258
151.33.53.211 0 3 145867 
38.100.21.78 7 9 418616 20150818054309
109.188.125.4 6 27 957243 20150825185814
195.154.184.40 1 1 7103 20150828041249
37.212.39.125 10 105 2633395 20150825223323
197.157.254.118 1 3 24312 20150825165427
177.10.109.217 1 17 186979 20150826033707
46.73.235.5 1 3 24260 20150813194652
130.25.207.237 1 3 24263 20150821153015
208.90.57.196 1 1 36954 20150814163728
37.212.119.45 6 86 1784979 20150831221214
85.17.180.4 1 1 36430 20150831140743
203.106.192.140 1 17 722305 20150818125023
125.167.185.249 1 17 643687 20150814073326
176.192.246.126 1 17 850184 20150824202554
201.41.8.226 1 17 890483 20150814084337
104.236.211.136 1 2 7561 20150825033927
END_VISITOR

# Date - Pages - Hits - Bandwidth - Visits
BEGIN_DAY 19
20150813 255 1473 7996818 4
20150814 132 192 2726851 9
20150815 2 5 145884 1
20150816 0 8 394336 0
20150817 114 626 23894947 8
20150818 128 214 4312732 11
20150819 126 309 4846195 12
20150820 116 126 249232 5
20150821 144 400 19568676 10
20150822 122 155 1192509 6
20150823 125 143 795746 8
20150824 184 642 11040771 12
20150825 145 321 5105335 14
20150826 130 237 1867719 8
20150827 146 446 20766446 17
20150828 152 334 5236115 18
20150829 129 206 6833798 5
20150830 131 223 3199767 11
20150831 136 464 6726107 21
END_DAY

# Session range - Number of visits
BEGIN_SESSION 7
1h+ 22
5mn-15mn 2
0s-30s 137
15mn-30mn 5
2mn-5mn 6
30s-2mn 7
30mn-1h 1
END_SESSION

# URL - Pages - Bandwidth - Entry - Exit
# The 10 first Pages must be first (order not required for others)
BEGIN_SIDER 23
/bitrix/tools/public_session.php 1806 15130 17 21
/ 242 3606707 144 132
/index.php 113 478936 1 0
/avtomobili-s-probegom/vehicle.php 92 1097373 6 11
/avtomobili-s-probegom/ 80 780816 9 12
/bitrix/admin/mobile_designer.php 16 244673 0 0
/contacts/ 10 100980 2 2
/bitrix/admin/component_props.php 9 53777 0 0
/bitrix/tools/autosave.php 8 240 0 0
/bitrix/admin/public_file_edit.php 7 90491 0 0
/service/ 4 40372 0 0
/bitrix/admin/index.php 2 46361 0 0
/strahovanie/ 5 39535 0 0
/bitrixsetup.php 4 15101 0 0
/bitrix/admin/partner_modules.php 1 20190 0 0
/bitrix/tools/captcha.php 2 7841 0 2
/bitrix/admin/ 1 23174 0 0
/bitrix/admin/settings.php 3 61731 0 0
/license.php 1 17391 0 0
/kreditovanie/ 5 35479 1 0
/bitrix/admin/update_system_market.php 1 24361 0 0
/bitrix/admin/user_options.php 2 44 0 0
/bitrix/gadgets/bitrix/rssreader/getdata.php 3 16735 0 0
END_SIDER
